# 3ds Max Wavefront OBJ Exporter v0.97b - (c)2007 guruware
# File Created: 08.06.2021 19:45:57

newmtl Adriateh_logo
	Ns 17.000000
	Ni 1.500000
	d 1.000000
	Tr 0.000000
	Tf 1.000000 1.000000 1.000000 
	illum 2
	Ka 0.588235 0.588235 0.588235
	Kd 0.588235 0.588235 0.588235
	Ks 0.675000 0.675000 0.675000
	Ke 0.000000 0.000000 0.000000
	map_Ka Adriatech logo.jpg
	map_Kd Adriatech logo.jpg

newmtl mat2621
	Ns 0.000000
	Ni 1.500000
	d 1.000000
	Tr 0.000000
	Tf 1.000000 1.000000 1.000000 
	illum 2
	Ka 0.000000 0.000000 0.000000
	Kd 0.980392 0.980392 0.980392
	Ks 0.000000 0.000000 0.000000
	Ke 0.000000 0.000000 0.000000

newmtl Kontejner_RAL7016_antracit
	Ns 9.999999
	Ni 1.500000
	d 1.000000
	Tr 0.000000
	Tf 1.000000 1.000000 1.000000 
	illum 2
	Ka 0.862745 0.862745 0.862745
	Kd 0.862745 0.862745 0.862745
	Ks 0.387000 0.387000 0.387000
	Ke 0.000000 0.000000 0.000000
	map_Ka ral7016anthrazitgrau.jpg
	map_Kd ral7016anthrazitgrau.jpg

newmtl Kontejner_Rubin_red
	Ns 9.999999
	Ni 1.500000
	d 1.000000
	Tr 0.000000
	Tf 1.000000 1.000000 1.000000 
	illum 2
	Ka 0.639216 0.039216 0.047059
	Kd 0.639216 0.039216 0.047059
	Ks 0.000000 0.000000 0.000000
	Ke 0.000000 0.000000 0.000000

newmtl inox_paneli
	Ns 9.999999
	Ni 1.500000
	d 1.000000
	Tr 0.000000
	Tf 1.000000 1.000000 1.000000 
	illum 2
	Ka 0.501961 0.501961 0.501961
	Kd 0.501961 0.501961 0.501961
	Ks 0.000000 0.000000 0.000000
	Ke 0.000000 0.000000 0.000000
	map_Ka hrom.jpg
	map_Kd hrom.jpg

newmtl BETON
	Ns 9.999999
	Ni 1.500000
	d 1.000000
	Tr 0.000000
	Tf 1.000000 1.000000 1.000000 
	illum 2
	Ka 0.588235 0.588235 0.588235
	Kd 0.588235 0.588235 0.588235
	Ks 0.000000 0.000000 0.000000
	Ke 0.000000 0.000000 0.000000
	map_Ka concrete_rough_cracked_Diffuse.jpg
	map_Kd concrete_rough_cracked_Diffuse.jpg
	map_Ks concrete_rough_cracked_Roughness.jpg
	map_bump -bm 0.300000 concrete_rough_cracked_Height.jpg
	map_refl dirt10ref.jpg

newmtl hrom_krov
	Ns 9.999999
	Ni 1.500000
	d 1.000000
	Tr 0.000000
	Tf 1.000000 1.000000 1.000000 
	illum 2
	Ka 0.588235 0.588235 0.588235
	Kd 0.588235 0.588235 0.588235
	Ks 0.000000 0.000000 0.000000
	Ke 0.000000 0.000000 0.000000
	map_Ka hrom.jpg
	map_Kd hrom.jpg

newmtl metal_prljavi_resetke
	Ns 9.999999
	Ni 1.500000
	d 1.000000
	Tr 0.000000
	Tf 1.000000 1.000000 1.000000 
	illum 2
	Ka 0.588235 0.588235 0.588235
	Kd 0.588235 0.588235 0.588235
	Ks 0.000000 0.000000 0.000000
	Ke 0.000000 0.000000 0.000000
	map_Ka hrom.jpg
	map_Kd hrom.jpg

newmtl plakt_levi_1
	Ns 9.999999
	Ni 1.500000
	d 1.000000
	Tr 0.000000
	Tf 1.000000 1.000000 1.000000 
	illum 2
	Ka 0.588235 0.588235 0.588235
	Kd 0.588235 0.588235 0.588235
	Ks 0.000000 0.000000 0.000000
	Ke 0.000000 0.000000 0.000000
	map_Ka tertis VR RIGHT hor FLIP.jpg
	map_Kd tertis VR RIGHT hor FLIP.jpg

newmtl plakat_LEVI_4
	Ns 9.999999
	Ni 1.500000
	d 1.000000
	Tr 0.000000
	Tf 1.000000 1.000000 1.000000 
	illum 2
	Ka 0.588235 0.588235 0.588235
	Kd 0.588235 0.588235 0.588235
	Ks 0.000000 0.000000 0.000000
	Ke 0.000000 0.000000 0.000000
	map_Ka tertis VR LEFT 4.jpg
	map_Kd tertis VR LEFT 4.jpg

newmtl plakat_levi__3
	Ns 9.999999
	Ni 1.500000
	d 1.000000
	Tr 0.000000
	Tf 1.000000 1.000000 1.000000 
	illum 2
	Ka 0.588235 0.588235 0.588235
	Kd 0.588235 0.588235 0.588235
	Ks 0.000000 0.000000 0.000000
	Ke 0.000000 0.000000 0.000000
	map_Ka tertis VR RIGHT triang.jpg
	map_Kd tertis VR RIGHT triang.jpg

newmtl PLAKAT_TRIANG_D
	Ns 9.999999
	Ni 1.500000
	d 1.000000
	Tr 0.000000
	Tf 1.000000 1.000000 1.000000 
	illum 2
	Ka 0.501961 0.501961 0.501961
	Kd 0.501961 0.501961 0.501961
	Ks 0.558000 0.558000 0.558000
	Ke 0.000000 0.000000 0.000000
	map_Ka tertis VR LEFT tr R.jpg
	map_Kd tertis VR LEFT tr R.jpg

newmtl plakat_levi_FLIP1
	Ns 9.999999
	Ni 1.500000
	d 1.000000
	Tr 0.000000
	Tf 1.000000 1.000000 1.000000 
	illum 2
	Ka 0.588235 0.588235 0.588235
	Kd 0.588235 0.588235 0.588235
	Ks 0.000000 0.000000 0.000000
	Ke 0.000000 0.000000 0.000000
	map_Ka tertis VR LEFT horFLIP.jpg
	map_Kd tertis VR LEFT horFLIP.jpg

newmtl plakat_DESNI_3
	Ns 9.999999
	Ni 1.500000
	d 1.000000
	Tr 0.000000
	Tf 1.000000 1.000000 1.000000 
	illum 2
	Ka 0.588235 0.588235 0.588235
	Kd 0.588235 0.588235 0.588235
	Ks 0.000000 0.000000 0.000000
	Ke 0.000000 0.000000 0.000000
	map_Ka tertis VR RIGHT 3.jpg
	map_Kd tertis VR RIGHT 3.jpg

newmtl plakat_gornji_3
	Ns 9.999999
	Ni 1.500000
	d 1.000000
	Tr 0.000000
	Tf 1.000000 1.000000 1.000000 
	illum 2
	Ka 0.588235 0.588235 0.588235
	Kd 0.588235 0.588235 0.588235
	Ks 0.000000 0.000000 0.000000
	Ke 0.000000 0.000000 0.000000
	map_Ka tertis VR IZNAD BOXA 03.jpg
	map_Kd tertis VR IZNAD BOXA 03.jpg

newmtl PLAKAT_desni_4
	Ns 9.999999
	Ni 1.500000
	d 1.000000
	Tr 0.000000
	Tf 1.000000 1.000000 1.000000 
	illum 2
	Ka 0.588235 0.588235 0.588235
	Kd 0.588235 0.588235 0.588235
	Ks 0.000000 0.000000 0.000000
	Ke 0.000000 0.000000 0.000000
	map_Ka tertis VR RIGHT 4.jpg
	map_Kd tertis VR RIGHT 4.jpg

newmtl plakat_LEVI_3
	Ns 9.999999
	Ni 1.500000
	d 1.000000
	Tr 0.000000
	Tf 1.000000 1.000000 1.000000 
	illum 2
	Ka 0.588235 0.588235 0.588235
	Kd 0.588235 0.588235 0.588235
	Ks 0.000000 0.000000 0.000000
	Ke 0.000000 0.000000 0.000000
	map_Ka tertis VR LEFT 3.jpg
	map_Kd tertis VR LEFT 3.jpg

newmtl plakat_levi_2
	Ns 9.999999
	Ni 1.500000
	d 1.000000
	Tr 0.000000
	Tf 1.000000 1.000000 1.000000 
	illum 2
	Ka 0.588235 0.588235 0.588235
	Kd 0.588235 0.588235 0.588235
	Ks 0.000000 0.000000 0.000000
	Ke 0.000000 0.000000 0.000000
	map_Ka tertis VR LEFT 2.jpg
	map_Kd tertis VR LEFT 2.jpg

newmtl plakat_DESNI_1
	Ns 9.999999
	Ni 1.500000
	d 1.000000
	Tr 0.000000
	Tf 1.000000 1.000000 1.000000 
	illum 2
	Ka 0.588235 0.588235 0.588235
	Kd 0.588235 0.588235 0.588235
	Ks 0.000000 0.000000 0.000000
	Ke 0.000000 0.000000 0.000000
	map_Ka tertis VR RIGHT 1.jpg
	map_Kd tertis VR RIGHT 1.jpg

newmtl plakat_LEVI_1
	Ns 9.999999
	Ni 1.500000
	d 1.000000
	Tr 0.000000
	Tf 1.000000 1.000000 1.000000 
	illum 2
	Ka 0.588235 0.588235 0.588235
	Kd 0.588235 0.588235 0.588235
	Ks 0.000000 0.000000 0.000000
	Ke 0.000000 0.000000 0.000000
	map_Ka tertis VR LEFT 1.jpg
	map_Kd tertis VR LEFT 1.jpg

newmtl zetonjera
	Ns 9.999999
	Ni 1.500000
	d 1.000000
	Tr 0.000000
	Tf 1.000000 1.000000 1.000000 
	illum 2
	Ka 0.588235 0.588235 0.588235
	Kd 0.588235 0.588235 0.588235
	Ks 0.000000 0.000000 0.000000
	Ke 0.000000 0.000000 0.000000
	map_Ka Tertis zetonjera foto.jpg
	map_Kd Tertis zetonjera foto.jpg

newmtl hrom_detalji
	Ns 9.999999
	Ni 1.500000
	d 1.000000
	Tr 0.000000
	Tf 1.000000 1.000000 1.000000 
	illum 2
	Ka 0.588235 0.588235 0.588235
	Kd 0.588235 0.588235 0.588235
	Ks 0.000000 0.000000 0.000000
	Ke 0.000000 0.000000 0.000000
	map_Ka hrom.jpg
	map_Kd hrom.jpg

newmtl semafor_zeleno
	Ns 9.999999
	Ni 1.500000
	d 1.000000
	Tr 0.000000
	Tf 1.000000 1.000000 1.000000 
	illum 2
	Ka 0.588235 0.588235 0.588235
	Kd 0.588235 0.588235 0.588235
	Ks 0.000000 0.000000 0.000000
	Ke 0.000000 0.000000 0.000000
	map_Ka semafor zelen dif.jpg
	map_Kd semafor zelen dif.jpg

newmtl semafor_crveno
	Ns 9.999999
	Ni 1.500000
	d 1.000000
	Tr 0.000000
	Tf 1.000000 1.000000 1.000000 
	illum 2
	Ka 0.588235 0.588235 0.588235
	Kd 0.588235 0.588235 0.588235
	Ks 0.000000 0.000000 0.000000
	Ke 0.000000 0.000000 0.000000
	map_Ka semafor crven dif.jpg
	map_Kd semafor crven dif.jpg
	map_Ks semafor crven reflection.jpg
	map_Ke semafor crven emmisive.jpg

newmtl plakat_gornji_4
	Ns 9.999999
	Ni 1.500000
	d 1.000000
	Tr 0.000000
	Tf 1.000000 1.000000 1.000000 
	illum 2
	Ka 0.588235 0.588235 0.588235
	Kd 0.588235 0.588235 0.588235
	Ks 0.000000 0.000000 0.000000
	Ke 0.000000 0.000000 0.000000
	map_Ka tertis VR IZNAD BOXA 04.jpg
	map_Kd tertis VR IZNAD BOXA 04.jpg

newmtl plakat_gornji_2
	Ns 9.999999
	Ni 1.500000
	d 1.000000
	Tr 0.000000
	Tf 1.000000 1.000000 1.000000 
	illum 2
	Ka 0.588235 0.588235 0.588235
	Kd 0.588235 0.588235 0.588235
	Ks 0.000000 0.000000 0.000000
	Ke 0.000000 0.000000 0.000000
	map_Ka tertis VR IZNAD BOXA 02.jpg
	map_Kd tertis VR IZNAD BOXA 02.jpg

newmtl plakat_gornji_1
	Ns 9.999999
	Ni 1.500000
	d 1.000000
	Tr 0.000000
	Tf 1.000000 1.000000 1.000000 
	illum 2
	Ka 0.588235 0.588235 0.588235
	Kd 0.588235 0.588235 0.588235
	Ks 0.000000 0.000000 0.000000
	Ke 0.000000 0.000000 0.000000
	map_Ka tertis VR IZNAD BOXA.jpg
	map_Kd tertis VR IZNAD BOXA.jpg

newmtl MONEY_CHANGER
	Ns 9.999999
	Ni 1.500000
	d 1.000000
	Tr 0.000000
	Tf 1.000000 1.000000 1.000000 
	illum 2
	Ka 0.588235 0.588235 0.588235
	Kd 0.588235 0.588235 0.588235
	Ks 0.000000 0.000000 0.000000
	Ke 0.000000 0.000000 0.000000
	map_Ka Money changer photo.jpg
	map_Kd Money changer photo.jpg

newmtl inox_paneli_ivca
	Ns 9.999999
	Ni 1.500000
	d 1.000000
	Tr 0.000000
	Tf 1.000000 1.000000 1.000000 
	illum 2
	Ka 0.588235 0.588235 0.588235
	Kd 0.588235 0.588235 0.588235
	Ks 0.000000 0.000000 0.000000
	Ke 0.000000 0.000000 0.000000
	map_Ka hrom.jpg
	map_Kd hrom.jpg

newmtl wire_166229229
	Ns 32
	d 1
	Tr 0
	Tf 1 1 1
	illum 2
	Ka 0.650980 0.898039 0.898039
	Kd 0.650980 0.898039 0.898039
	Ks 0.350000 0.350000 0.350000

newmtl hrom_celicne_grede_krov
	Ns 9.999999
	Ni 1.500000
	d 1.000000
	Tr 0.000000
	Tf 1.000000 1.000000 1.000000 
	illum 2
	Ka 0.415686 0.415686 0.415686
	Kd 0.415686 0.415686 0.415686
	Ks 0.000000 0.000000 0.000000
	Ke 0.000000 0.000000 0.000000
	map_Ka hrom.jpg
	map_Kd hrom.jpg

newmtl drzac_patosnica
	Ns 9.999999
	Ni 1.500000
	d 1.000000
	Tr 0.000000
	Tf 1.000000 1.000000 1.000000 
	illum 2
	Ka 0.588235 0.588235 0.588235
	Kd 0.588235 0.588235 0.588235
	Ks 0.000000 0.000000 0.000000
	Ke 0.000000 0.000000 0.000000
	map_Ka Tepih drzac.jpg
	map_Kd Tepih drzac.jpg

newmtl metal_detalji
	Ns 9.999999
	Ni 1.500000
	d 1.000000
	Tr 0.000000
	Tf 1.000000 1.000000 1.000000 
	illum 2
	Ka 0.415686 0.415686 0.415686
	Kd 0.415686 0.415686 0.415686
	Ks 0.000000 0.000000 0.000000
	Ke 0.000000 0.000000 0.000000
	map_Ka hrom.jpg
	map_Kd hrom.jpg

newmtl kabel_detalj
	Ns 9.999999
	Ni 1.500000
	d 1.000000
	Tr 0.000000
	Tf 1.000000 1.000000 1.000000 
	illum 2
	Ka 0.588235 0.588235 0.588235
	Kd 0.588235 0.588235 0.588235
	Ks 0.000000 0.000000 0.000000
	Ke 0.000000 0.000000 0.000000
	map_Ka pistolj_KABEL_KRAJ.jpg
	map_Kd pistolj_KABEL_KRAJ.jpg

newmtl wire_214228153
	Ns 32
	d 1
	Tr 0
	Tf 1 1 1
	illum 2
	Ka 0.839216 0.894118 0.600000
	Kd 0.839216 0.894118 0.600000
	Ks 0.350000 0.350000 0.350000

newmtl KABEL
	Ns 9.999999
	Ni 1.500000
	d 1.000000
	Tr 0.000000
	Tf 1.000000 1.000000 1.000000 
	illum 2
	Ka 0.588235 0.588235 0.588235
	Kd 0.588235 0.588235 0.588235
	Ks 0.315000 0.315000 0.315000
	Ke 0.000000 0.000000 0.000000
	map_Ka KABEL CETKA.jpg
	map_Kd KABEL CETKA.jpg

newmtl cetka_rupice
	Ns 9.999999
	Ni 1.500000
	d 1.000000
	Tr 0.000000
	Tf 1.000000 1.000000 1.000000 
	illum 2
	Ka 0.588235 0.588235 0.588235
	Kd 0.588235 0.588235 0.588235
	Ks 0.369000 0.369000 0.369000
	Ke 0.000000 0.000000 0.000000
	map_Ka CETKA_DETALJ.jpg
	map_Kd CETKA_DETALJ.jpg

newmtl kabel_crveni
	Ns 43.000000
	Ni 1.500000
	d 1.000000
	Tr 0.000000
	Tf 1.000000 1.000000 1.000000 
	illum 2
	Ka 0.839216 0.105882 0.105882
	Kd 0.839216 0.105882 0.105882
	Ks 0.774000 0.774000 0.774000
	Ke 0.000000 0.000000 0.000000

newmtl kabel_zuti
	Ns 9.999999
	Ni 1.500000
	d 1.000000
	Tr 0.000000
	Tf 1.000000 1.000000 1.000000 
	illum 2
	Ka 0.862745 0.854902 0.235294
	Kd 0.862745 0.854902 0.235294
	Ks 0.459000 0.459000 0.459000
	Ke 0.000000 0.000000 0.000000

newmtl CRNA_PLASTIKA_PISTOLJ
	Ns 9.000000
	Ni 1.500000
	d 1.000000
	Tr 0.000000
	Tf 1.000000 1.000000 1.000000 
	illum 2
	Ka 0.062745 0.062745 0.062745
	Kd 0.062745 0.062745 0.062745
	Ks 0.621000 0.621000 0.621000
	Ke 0.000000 0.000000 0.000000

newmtl Kabel_plavi
	Ns 9.999999
	Ni 1.500000
	d 1.000000
	Tr 0.000000
	Tf 1.000000 1.000000 1.000000 
	illum 2
	Ka 0.588235 0.588235 0.588235
	Kd 0.588235 0.588235 0.588235
	Ks 0.000000 0.000000 0.000000
	Ke 0.000000 0.000000 0.000000
	map_Ka KABEL CETKA.jpg
	map_Kd KABEL CETKA.jpg

newmtl lampa_kuciste
	Ns 9.999999
	Ni 1.500000
	d 1.000000
	Tr 0.000000
	Tf 1.000000 1.000000 1.000000 
	illum 2
	Ka 0.725490 0.725490 0.725490
	Kd 0.725490 0.725490 0.725490
	Ks 0.621000 0.621000 0.621000
	Ke 0.000000 0.000000 0.000000

newmtl lampa_led
	Ns 9.999999
	Ni 1.500000
	d 1.000000
	Tr 0.000000
	Tf 1.000000 1.000000 1.000000 
	illum 2
	Ka 1.000000 1.000000 1.000000
	Kd 1.000000 1.000000 1.000000
	Ks 0.000000 0.000000 0.000000
	Ke 0.000000 0.000000 0.000000

newmtl pod_kontejner
	Ns 9.999999
	Ni 1.500000
	d 1.000000
	Tr 0.000000
	Tf 1.000000 1.000000 1.000000 
	illum 2
	Ka 0.588235 0.588235 0.588235
	Kd 0.588235 0.588235 0.588235
	Ks 0.000000 0.000000 0.000000
	Ke 0.000000 0.000000 0.000000
	map_Ka ral7016anthrazitgrau.jpg
	map_Kd ral7016anthrazitgrau.jpg

newmtl wire_153228214
	Ns 32
	d 1
	Tr 0
	Tf 1 1 1
	illum 2
	Ka 0.600000 0.894118 0.839216
	Kd 0.600000 0.894118 0.839216
	Ks 0.350000 0.350000 0.350000

newmtl wire_027177148
	Ns 32
	d 1
	Tr 0
	Tf 1 1 1
	illum 2
	Ka 0.105882 0.694118 0.580392
	Kd 0.105882 0.694118 0.580392
	Ks 0.350000 0.350000 0.350000

newmtl wire_088177027
	Ns 32
	d 1
	Tr 0
	Tf 1 1 1
	illum 2
	Ka 0.345098 0.694118 0.105882
	Kd 0.345098 0.694118 0.105882
	Ks 0.350000 0.350000 0.350000

newmtl wire_135006006
	Ns 32
	d 1
	Tr 0
	Tf 1 1 1
	illum 2
	Ka 0.529412 0.023529 0.023529
	Kd 0.529412 0.023529 0.023529
	Ks 0.350000 0.350000 0.350000

newmtl wire_138008110
	Ns 32
	d 1
	Tr 0
	Tf 1 1 1
	illum 2
	Ka 0.541176 0.031373 0.431373
	Kd 0.541176 0.031373 0.431373
	Ks 0.350000 0.350000 0.350000

newmtl 18___Default
	Ns 9.999999
	Ni 1.500000
	d 1.000000
	Tr 0.000000
	Tf 1.000000 1.000000 1.000000 
	illum 2
	Ka 0.588235 0.588235 0.588235
	Kd 0.588235 0.588235 0.588235
	Ks 0.000000 0.000000 0.000000
	Ke 0.000000 0.000000 0.000000

newmtl Logo_crn
	Ns 9.999999
	Ni 1.500000
	d 1.000000
	Tr 0.000000
	Tf 1.000000 1.000000 1.000000 
	illum 2
	Ka 0.003922 0.003922 0.003922
	Kd 0.003922 0.003922 0.003922
	Ks 0.000000 0.000000 0.000000
	Ke 0.000000 0.000000 0.000000

newmtl logo_crvena
	Ns 9.999999
	Ni 1.500000
	d 1.000000
	Tr 0.000000
	Tf 1.000000 1.000000 1.000000 
	illum 2
	Ka 0.745098 0.137255 0.129412
	Kd 0.745098 0.137255 0.129412
	Ks 0.000000 0.000000 0.000000
	Ke 0.000000 0.000000 0.000000

newmtl krov_donja_strana
	Ns 9.999999
	Ni 1.500000
	d 1.000000
	Tr 0.000000
	Tf 1.000000 1.000000 1.000000 
	illum 2
	Ka 0.588235 0.588235 0.588235
	Kd 0.588235 0.588235 0.588235
	Ks 0.000000 0.000000 0.000000
	Ke 0.000000 0.000000 0.000000
	map_Ka plafon_donja_strana2.jpg
	map_Kd plafon_donja_strana2.jpg

newmtl Material__33
	Ns 9.999999
	Ni 1.500000
	d 1.000000
	Tr 0.000000
	Tf 1.000000 1.000000 1.000000 
	illum 2
	Ka 0.588235 0.588235 0.588235
	Kd 0.588235 0.588235 0.588235
	Ks 0.000000 0.000000 0.000000
	Ke 0.000000 0.000000 0.000000
	map_Ka tertis VR RIGHT hor FLIP.jpg
	map_Kd tertis VR RIGHT hor FLIP.jpg

newmtl Material__34
	Ns 9.999999
	Ni 1.500000
	d 1.000000
	Tr 0.000000
	Tf 1.000000 1.000000 1.000000 
	illum 2
	Ka 0.588235 0.588235 0.588235
	Kd 0.588235 0.588235 0.588235
	Ks 0.000000 0.000000 0.000000
	Ke 0.000000 0.000000 0.000000
	map_Ka tertis VR LEFT 2.jpg
	map_Kd tertis VR LEFT 2.jpg

newmtl Material__35
	Ns 9.999999
	Ni 1.500000
	d 1.000000
	Tr 0.000000
	Tf 1.000000 1.000000 1.000000 
	illum 2
	Ka 0.588235 0.588235 0.588235
	Kd 0.588235 0.588235 0.588235
	Ks 0.000000 0.000000 0.000000
	Ke 0.000000 0.000000 0.000000
	map_Ka tertis VR RIGHT triang.jpg
	map_Kd tertis VR RIGHT triang.jpg

newmtl Material__36
	Ns 9.999999
	Ni 1.500000
	d 1.000000
	Tr 0.000000
	Tf 1.000000 1.000000 1.000000 
	illum 2
	Ka 0.501961 0.501961 0.501961
	Kd 0.501961 0.501961 0.501961
	Ks 0.558000 0.558000 0.558000
	Ke 0.000000 0.000000 0.000000
	map_Ka tertis VR LEFT tr R.jpg
	map_Kd tertis VR LEFT tr R.jpg

newmtl Material__37
	Ns 9.999999
	Ni 1.500000
	d 1.000000
	Tr 0.000000
	Tf 1.000000 1.000000 1.000000 
	illum 2
	Ka 0.588235 0.588235 0.588235
	Kd 0.588235 0.588235 0.588235
	Ks 0.000000 0.000000 0.000000
	Ke 0.000000 0.000000 0.000000
	map_Ka tertis VR LEFT horFLIP.jpg
	map_Kd tertis VR LEFT horFLIP.jpg

newmtl plakat_DESNI_2
	Ns 9.999999
	Ni 1.500000
	d 1.000000
	Tr 0.000000
	Tf 1.000000 1.000000 1.000000 
	illum 2
	Ka 0.588235 0.588235 0.588235
	Kd 0.588235 0.588235 0.588235
	Ks 0.000000 0.000000 0.000000
	Ke 0.000000 0.000000 0.000000
	map_Ka tertis VR RIGHT 2.jpg
	map_Kd tertis VR RIGHT 2.jpg
